*** Life<FredkinCell> 19x5 ***

Generation = 0, Population = 52.
0000-
0----
0000-
--00-
--00-
0--00
00-00
-0--0
0---0
0---0
0-0-0
00000
00000
--0-0
-0--0
0-0-0
---0-
0000-
-0---

*** Life<FredkinCell> 12x15 ***

Generation = 0, Population = 70.
-----00----0-0-
0--0-0-00000---
0-000-00---0--0
0--0-000-0--0--
-----00----0--0
000-00---0----0
--0-0------00--
-0------0---00-
0000000--0-----
-0--0--0--0--00
----0--00--00-0
--0----0--0---0

Generation = 6, Population = 82.
--1-3211--3-0--
--1----2--03---
0--01-0--1--02-
4---3-02-41---0
-0---202--1-0--
4-----2-3-323-6
1242112-1-1---3
0-330--10--104-
--1144-21--013-
----3-242-1-2--
-2-----2---32-1
-3----1---0-1-3

Generation = 12, Population = 90.
224-643-115-1--
213----662---4-
313-12-362--3-2
5---531--5--3-1
---22-0--12315-
-043--2---74--9
2276-1--1----25
-------3--3-162
-1---835-------
13-47-862-3----
----81462-3632-
-5--1--421--2-5

Generation = 18, Population = 94.
5-7577-4-5-7154
-2-2--286-24---
-4-3--3---55-4-
--13+--6---23--
-2-2----3---5--
92-9-46---+561-
--+--1-71--83-+
94-4--3-1-----2
2466-+9-416--48
74-672-640-4753
--5-+28----7-83
353--2--4-71-3-

Generation = 24, Population = 92.
-5+-9+77---8258
6--3----9-4--74
--+74356+--7-48
84--+--7---44--
-4--------84-7-
+36+8-94--+--4-
43+----+----44-
+5---35-264-7-2
--798+-9+--14--
+--89---8-969-9
-+6-+-964---8-3
--6-5-36--83-78

Generation = 30, Population = 80.
7---++--667--7-
----5-4--3-9---
--+9--5--5---6+
+445+6-----5---
----5+----9559-
+--++--463----+
----754---3+-5+
---653---6--7--
--++---+-3+255+
-4-++-+9--+---+
-+72-5-8---++-4
4-829----49--+-

Generation = 36, Population = 85.
--+-+---+--+-8+
97+--8+++3-+6+7
--++7--+-86---+
---9-8---+39--6
-64--+--6--8-+-
+--++--88--6---
74-999----5--7-
+--7-57--+769+-
5---++----+--7-
-----6+-81+--7-
5--6-6--853-+-8
----+6--+--6+++

Generation = 42, Population = 92.
+++++-+-+9-+---
+8-589-----+-+-
-6-----+++-++8+
-4--+-----4+---
-9---+++---+-++
+8-+-6--8-+7+6-
8-+-+9-+---+-+-
+76--6+---8--+-
9-++-++-+8+-8-+
-7-++7-+9-+-+-+
--+7+--+-73+--+
66-7--5-----+++

Generation = 48, Population = 81.
-+--+-+-++-+8-+
---6+------+++-
-----99----+-+-
+---++-+7+8-+7-
3+74-+++84-+++-
------+-+-+7+--
96++-+++5+-+5-+
-79---++---8-+6
--+-+------89++
--+----+--+---+
--+----++----+-
----+-9+---8--+

Generation = 54, Population = 83.
+-+----++++---+
-+-++-----++++-
--+-++++--+-+--
-5+++--+----+9-
---8-+--8----++
+-+-+-+--7-9--+
-8++++--6----++
-8-+---+6++--+-
+--+-++-+-+---+
-+----+---+-+-+
8+-9-++++-8++--
---++----8+--++

Generation = 60, Population = 91.
+-++++++----+-+
++-++-++---+--+
+8+-+++-+++-+--
--+++-7-9+-+-++
4-8+9+----+-+--
-8+-+9+++---+++
-+--+---7-++7+-
--+--9++-++-+-8
-----------+--+
-+--+--++5--+-+
----+++++-+-+++
+-++-+-+-------

Generation = 66, Population = 97.
++-++-+--+--++-
+-++--+++-+++-+
+-++++-+-+-++++
+7+---------+-+
--++-+-+--+--++
-9+-+-+-+-+-+--
++-++---++++---
-+-+++--8--++++
++--+----9--++-
+++--+--+-++-+-
+++--++--+-++-+
-++--+-+++++-+-

Generation = 72, Population = 96.
--+-+--++-++---
+----++--+-++++
-++-++++---++++
---+-++-+++++--
-++++--+--+++--
-9-++--++-+++++
-+-+-++----+--+
+-++-+---++---+
++--+++---+--++
--+-+-++--++-++
+-+--+-++-+-++-
-----++++++-+++

Generation = 78, Population = 101.
-++++-+----++++
--++-++++-+++++
+---++--+++--+-
--++++-++++-+++
++---+--9-++++-
++++-++--+-----
-+---+---++--+-
-+-+--+--++-++-
+---+++-+++-+++
+-+++----8+--+-
+++++-++++++-+-
+-++---+--+-+-+

Generation = 84, Population = 82.
-+---+-+--+++--
+++--+--+-+-++-
--+-+---+--+-++
------++-+++--+
-+-+-+--++--++-
++++--+++-+-++-
---++---++--+++
-++-+--+-+--+++
+--+------+--++
----++--+--++++
-----+--++--++-
-++---++--++-+-

*** Life<FredkinCell> 2x11 ***

Generation = 0, Population = 15.
-00-00-000-
0--0000000-

Generation = 5, Population = 13.
1--10211--4
03---31-12-

Generation = 10, Population = 12.
-52-07---34
2-2-3-3-4-3

Generation = 15, Population = 9.
-+---+---8-
-55-63---46

Generation = 20, Population = 12.
2+---+2-3+-
6-8-9-7-8-9

*** Life<FredkinCell> 5x2 ***

Generation = 0, Population = 6.
-0
0-
0-
00
-0

*** Life<FredkinCell> 6x16 ***

Generation = 0, Population = 5.
----------------
-------------0--
--0---0---------
----------------
---------0------
----------0-----

*** Life<FredkinCell> 17x19 ***

Generation = 0, Population = 74.
0----000--------0--
----00-0----0-----0
0--00--0---0-------
-----------0---0-0-
0---0--0--0-----0--
-0---000-----0---0-
--0---00---------0-
--0-0---00-0------0
--0-------------0--
------0--0---00---0
-----00------0-0---
--0--0--0------0---
--------0-0------0-
-------0-----00---0
-0----0---------00-
---0---0--0--0-----
0-0--0-------0----0

Generation = 2, Population = 156.
0-0---0010-0--0-0-1
--00-010-000--00110
01--00----1--0-----
-0--0-0--0--10-0--1
--0100--11-00-0--10
--0--2-2---0---0-21
--2-10-0010----0---
010-01----00-00-10-
0-2-10-0-----111-10
-----0-110-01------
--101--1--00-2-21--
0--11----11--1---1-
-0---10-2-0-01--10-
--00---0001012----0
1-1101----1--011-2-
-1-----011-11210--1
00-01011---0-2-0-1-

Generation = 4, Population = 144.
-0--0----0--1---2-3
0--21-3--0-0100--10
---100--0--1---011-
--0-0--102---0-0-03
---120-13--00-0---2
--001-14-0020-0----
--2-12-0--0----2-1-
--2-2-10---2000030-
----1-020---0---112
-00---1--2---1--1--
-------3--00----30-
0001--111-3-01----1
0---032-----0-1-300
---0--0---10-4--11-
11---31---3-12-1-2-
--0--00-1311-232-1-
2-0-1---0-1---1--1-

Generation = 6, Population = 144.
-02--111221-3--1215
001--13---1-3-20-1-
--0-----2-33---0131
----01---4------1--
-0------3-00012-0-4
010----6122-00----2
0-2-3--011-101141--
024023121----00--20
--------20-0-------
-2--1--3--01----11-
1------5----03-4--0
------1---5-0-01033
-0-123--4-00-2--3--
0--00--2-----6-0-3-
3---13311--0-43-221
0--------3-3-2-----
-02--02---3-033-1--

Generation = 8, Population = 152.
00-----1-----1-123-
--3-31-0-11--042-1-
2-2-11-22-3501--3--
--11-3-114-1-1-1-0-
0--13-025-002-40-16
03--32------22-2-3-
-0--53-2-12--134-2-
026-4--4--0--0--44-
--4-2-242-1--23-3-4
02--1-35--2---1-3-0
10212------1--16-22
11-32------1----23-
-00-4-30-00--4--521
-0--------2-3-201-0
3-1--333--4--6-----
--201----3-------2-
-24-2---1---2--113-

Generation = 10, Population = 169.
22-02---332-5321--7
1---3-30---0---22--
-1---304--3---013--
--111-13-6--1-1--2-
--0-3---52-22---1-8
-3-1522624---21203-
1--1-30-13-31--4---
---04--42104-0-144-
---0---4-----232--6
0-2-1135-341-11----
---3411-0---1-18--2
-3-342-3-3--232---4
122-6----20114-0741
1210----1021-6--15-
--32-53-3-62-6----3
2-4-1011--142-4-0-2
-442-2321-3-2---1-1

Generation = 12, Population = 165.
-4--2-3--3--7-2124-
3-42-2-003--4-----1
212225-6-036---3-42
--11-513--0-32-222-
-1213---5-1-225----
-3--7-4--6-3---4-53
10---303----33-432-
2--2---4---42-134-1
20--3-------2452-2-
-2-0--5-2-43313--20
3----1--0112-4--4-4
--1342-3356-4--3344
--21--4244-3-62296-
1---11-41--34-4-1-2
-2--2---5-8-3---335
234--01124-6----23-
2-----5--0-2-5-----

Generation = 14, Population = 172.
2---22--4----341-6-
-1--44-0-5106253-33
-1222----05813----2
--3-151-170--2-2--3
21---11-543-2472--9
0--194-6263--3162--
---265-3-5-4-5-6--1
24725---42---113-5-
20-2---541---6524-7
1420--5-4-4--1---20
-0--4--6--12-629---
--1--22335624--3---
----85624425-84-9-2
-3--1314--23-7-1--4
4------5----5-5--5-
2-6-2-31--3-23-32--
-56---73--443--2342

Generation = 16, Population = 152.
-42--2-244---3612-7
----6----5---273-3-
3-42-7-72----50434-
-25-----1-21-2-4---
23--4314--5-449--3+
-----66-46---5-64--
-12--5-5--3-3--6-21
--72--1--41-4335--2
4-5--127----48-4-39
1-2-1--5-----14-440
323-4---2-3-----63-
--1-5-435---6-35---
1332-5-----73-6--6-
1-2---3621--59-1-56
63--3---6-8--7--45-
-5--2--3-5--4----4-
-764-37----43-5--44

Generation = 18, Population = 167.
-6-2223---4-9383--7
-3----301-318--525-
32-4---92--+-724--3
1--2-6---7234-262--
-3-3653674-464--2--
-3--+----84337-6-6-
232--7-526--56--541
-59-6-3-561--5-----
6-523----2224+66-3-
---0-2575-64416---0
-2--4-284-3337-----
1-1-736------4-7-5-
-3--95-2-63-5-84+--
-3---4-6-----9-12-8
---3--4-8-847-6----
3--0-1--4-47645--42
-7664-93-2-6---35--

Generation = 20, Population = 194.
383-----5---9383-77
4---7-3--633--8-274
3246--0921--2-4-44-
33622813--23-2---34
-5-387--76-664+-44+
13--+8-6-+45-9-658-
43--7--7485---46-6-
35+-843-561-6-3--53
625----85--4--8---+
2--224795584-16--40
32--6--+----5-2+64-
-4-----4--6-864945-
-53497745858--+-+74
--411658332-69--268
-4555----08678--6--
3-70--4-66-7--532--
3--86-+--2583--5746

Generation = 22, Population = 144.
--5-3--4-4-1+-+547-
-442-4---63---87-74
54--472+2---2-----4
-----+-----34-373--
-5-3893--66--4-44--
1--1-868-+-5-+---+4
--2-7---6-746--6---
-5-3--5-7--6----5--
--53324-73---+--5-+
-524-479758----04--
----8-------78-+--4
1-15-5--568-864--74
-5-6---4-+-------7-
------7+5-43-9--48-
---55-4--2+--87---6
-6-24------7-47----
--6-84-5-25+56--9-8

Generation = 24, Population = 167.
-8--3--4566-+-+----
44--7---1---848-374
74566-2-416+49--556
4373--3--8-54459355
3---8--6--8866+--4-
1-0-+88-----4+366-6
64--7----99-8-56-73
5-+5947--7-8--3676-
74-3-4-----6-+975-+
--4--4----------4--
-3--83-+4-35--4+---
----9-7-78-2-86+-74
-5----86--6+6-+----
155---7-73---+5--8-
---5--65--+89+-376-
-682-1-4775-8--5-5-
4---8--52-5+-656---

Generation = 26, Population = 149.
3----34-76---4---88
-65---5--7---687394
9--8-7-+4--+4---75-
---3--53-+3-4--9---
3-33-9----+----5---
-5-2+8+95-56---8-+8
86--781-8--5+87-6--
55-7+6--89-+-5--96-
-65-----8-----+9--+
--4-34-+9----37-6--
4-44--4-4---88-+-66
142-+694--9-9+6-4-6
-7----+-7-8-8----7-
-7--18--9--4-+5-5-9
7-----6-+-+8-+-3-87
--8-6------8+--5---
---885+---5+6-56---

Generation = 28, Population = 163.
3-7-5--59682+6-----
5-----7-295--687-9-
94-----+636------5-
-483-+--3---6---46-
--5--+4-9---7-+----
2-1--8+-5--6-+----+
-8-498-8-9+7++988--
5-+9-68--+-+---698-
765--45---285+++7--
3---569-+------064-
-4---4--6-568+-+7--
-62--69--++----+--8
--4-+-+---++--+4---
297--+8--5--7---5-+
7566-56-+3+-+-858-7
588--15-977+-5--474
486---+6247-67--+-8

Generation = 30, Population = 158.
-97--5-7+--2--+7-9-
57-386714-7-96-----
--6+6---6---5+66---
54+-3-63-+47--7--6-
----++46---9-7-6-6-
2732---+--5-5+--8-+
9-2---1----7-+---74
-6-9+8--++---65-9--
--543---9-4+--++94+
-7--7--++--4-3726--
56--846+83-6-+-+777
262-+---7+-3-+-+4--
---7-------+-9+-+74
2-9-------5--+-2-9-
9-6-5785+3--+-+5++7
78---1----7--77---6
--6---+--6--877-+--

Generation = 32, Population = 132.
49-3--5---92-6-94--
--6---7---7-9--8-+-
9----73-8--+5--886-
--+53--34--7-5-+--6
3-5--+-8----9-+6--+
27--++++-+--7+-9-+-
---5-918-++7--9----
66-9++--+--+----+--
8------8--6---+-94-
4---------9-4---860
5-5--4-------+5+77-
2846----7+-3---+6-8
--5--8---+---------
-----+---65-8+6469+
--8--98-+----+-7--7
-------6+-7+-7---78
----95----7-+9--+5-

Generation = 34, Population = 172.
6-9-6---+894-6+9--8
6-639--36-94+-9--+5
95--79--+56+5+8+86-
-----+-3-+-9-5-+578
5-7-++--9----8-85-+
-94-+-++6+5---3+8++
-8479+----+7++-9-94
6---+-8-------58+--
---6-6789-8+-++--4+
4---77--+7+-4---+-2
5--5+4---4678+----9
2848+-96--+3-+-+69-
---7+-+-8--+--+-+95
3++----+96-----66--
9-887-+6+4-++--9--7
------6-+7-+--96-7-
---++--7---+---7+5-

Generation = 36, Population = 162.
-++-87-7+8+-+--+6--
-8--+7-589-4--9-4+-
9----9--+-8+--+--88
65---+6--+-+8-9+-9-
5-9-+--9+7++-+-+-7+
--64+-+---5----+--+
-8-7-+--9+--+--9--4
-7+-++-5+----7-++-3
8-764-98-48+-+-+-6+
694----++-+-649-+7-
57-5+-6+84--+-6+--+
--48+798--+5--8+-9-
-7--+-+7-+--+-+----
3+---++-9--5----69+
-6----+----+---9++-
89+-7-8---7++----9-
49------37--+-77+--

Generation = 38, Population = 173.
-+---7-7+----8++6--
6+6---7--9+--7--4+5
-76+-93++6++6--+9+-
87-54+83----+-----9
76-5++-++9-+--++6-+
-9--++-+7+-7--5----
-+-9-+--9--8-++-8+4
-7+9-++-++2+6-----3
+6--47------6-+-+6+
-+4-78---8+--69--7-
--6-+--++67----+---
39-+-7----+7++++798
1-6--9+---+------+7
-++12++-967-9+--6--
+--8--+8-5----+-++7
89-2-2--+79++8+76+9
--6+---859---99-+-9

Generation = 40, Population = 173.
--+3-7-9-------+6-+
8+6-+99-------+-6-7
-9-+8-3--8--6+-+-+-
-9+--+---+-+-6---9-
78+---6+-9-+-+-+-7+
2---++-+7+--8+--9--
-+-+-+2-9-+--++9-+-
69+--++5++2-6-5-++3
+89649+--5-+8++-+8+
----9----8---892-9-
68---57++8-8-+8-77-
3+5+-99+-++7+-+-7--
3---+-+8+-+-+-+--+-
5++--+--+8--+--7--+
-7888++---++++-+++-
8--27-----9-++--6+-
-98-+--+798-+998-6-

Generation = 42, Population = 163.
8-+5-97-----+-+---+
-+6--+958+-5+8+--+-
+-7-8--+++++--+-+--
8++-5-+55---+-+---+
--+6+--+-9+-+-+-87+
---5-+++9+67++5+9--
-+-+--2---+9++++-+-
6-+---+5++-+8-5-++-
++-6-++99--+++-++--
--54--9++--46+--+-2
68-6+-9+-+-++-+----
5---+9--8-+9+-+-9+-
--77-+-++-+-+---+--
-+---+-+-+------7-+
-----+-+--++++-+-+7
--+---+--79+---8---
4-+-+-+----+-+---8-

Generation = 44, Population = 155.
-++-8-7--+-4--+-6--
-+8-++-7-----8--7-8
+-----5-++-+-++--++
-++--+--5+4-+-++59+
---8------++++--87-
---5--+--+-9---+---
+-6+--2-9----+-+9-5
------+7++3++87-+--
-++---+-+5++-+----+
7+7-+8-++8+6-+-3+--
--86+--++---+-++7--
7+6--99+---++--+9-9
-----+-++-+-+++5-+-
6-+-3-+-+--7+--8-+-
+---+-+------++---7
9+---2-----++---7++
4-+-+6-+7+8+++-+--+

Generation = 46, Population = 157.
-+-6+-79-+-4+-+--+-
9+--+-+79-+5+----++
++-+---++-----+--++
8++6-+-65+------79+
-+++-+--+-+-++++87+
--6-+-+-9+---+-+--+
---+-+---++9++++--5
8+++----+-5----+--3
---86----5+---+++--
9+9-+----+--7+---+-
6---+69+---+-+++9--
-+6---9-++--++-----
3-8--+---+-++-+7-+7
--+---++++----7----
--+---+-+5--+-++-+-
----9-+8+9++++--9+-
--+++-++-+8+----+8+

Generation = 48, Population = 158.
8++8---9-++--8++8-+
-+9-+--79+--+++8-+-
++-+9+-++--+8+--+--
8---5-+6----+7+-79-
----+-7--9+-+--+---
3-8--+--9+---+----+
--8++-----+-++++---
+-++++----5--9-++--
+++86+--+5+++++--8-
9---+--+-+--9++3--3
--9---+++-9---++---
-+-++-------++-+-+-
3--9-+-++-+--++9+-9
8++-4++-++--+----+-
---+++--+-++-+---+-
----+3+-+9--+++---+
5++++-+-8-+--+----+

Generation = 50, Population = 151.
-+-+-9-+--+5+8---++
--93-++--+---------
--8+9-6----+8-+++--
-+----+65+5+--++7+-
7+--++9-+---++-+99-
----++-+----+-5-9++
---++-----+-----9--
-+++--+----+-9---+4
-+-+-++9-7--+-+-+--
-++---++-+---++3+-3
899-+7++--9+++-+--+
---+---++-++---+--9
59--++--+++--------
-+-2-++--+-8-----++
---++-+-+6+++++++--
++-3-5+--+----++-++
7-++--+---+-+--+++-

Generation = 52, Population = 181.
--+-++8-+--5+--+-+-
9--5-++8-++---+99+-
-+8+++-+-+-++--+-+-
--+--+---+5++--+---
9-+-+-9++-+-++++-++
-----++-+---++5-+-+
++9+++39-+--++-+-+5
+-+++-+-+--++--+++6
+-++6++9+9+--+-+---
+++5-++--++-+-+----
+--7+7--+--+---+-8+
-+6+-9+++-++++++--+
-99+-+-+-++++-+-+-9
8---4-++--7--+8+8++
---+--+++---+-----8
+-+3+-+-++--++-+---
9+--+6--9++++-9+--+

Generation = 54, Population = 159.
+++---8-------++-+-
9+-7++----+-+++-9++
-++-++7+-----+-+-++
----6--6---+-8++--+
9----+9--+----+--+-
3----+-+-+7++--++++
-+-+-+3-+-+-++--+--
+-++-+----5--+-+-+6
--++--+9+-++---+-9-
+-+-+--+---7-+---+-
---9+9+++++++++--+-
8-8++++--+-++++-9--
-9---++++-+-++-+-+-
-+----++--9--+---++
+7++--++-6----++--+
++--+7+-+-+-----+-+
-+-++8++9-+----+-++

Generation = 56, Population = 170.
+-++++-++---+-+++++
9+--+++-+-+--++9--+
++----7++--+-+-++++
-++88++8-+--+8+--++
+------+--++-----++
----+--++---+-5++--
+++++-5-+++-+-+---6
-+-+---8++5+---+-+-
+---7-++-++++-+++--
-----+---++-+++5++5
----++-----++-+-+--
8-++++--++-+++-+9--
6++---+++++---++--9
-++-4+--+-+--+9-+--
-7+-+--++6-+-----+-
++--+-+-----+++-+++
9+---+-+9---+++++-+

Generation = 58, Population = 161.
--+--+9+-+-7--++-+-
++98-++--++6+-++---
+-----9-----+--+-+-
--+--+-+7+---++-7--
+--+++-+++++--+--++
----+-+-++8+--5+++-
-+-+++5+-+-++--+++-
-+-++++--+-+++-+--7
-+++7--+++-------+-
+++6++-++---+---+--
-+-9+-++++++-+-----
--++-+--+---+------
-+-+--+-+-+++++-+-9
8+-34+++-++-----++-
+--++-++-8-++--++--
+++5-9+----++++-+--
----+-++------+-+-+

Generation = 60, Population = 159.
--++---+++----++++-
-+-----8+-+8-+---+-
---+--+------++--++
-++---+-9+6---++-++
----++-++++--+-++-+
-+-6--+-+++-+----+-
+---++5-+-----++-+-
+--++--9+--++---+-7
++++9+-+++-+++--++-
--+---+++--7-+-7---
-+-+--+--+-+--+++++
9+++++-++++-+-+--+-
6--++++-+++++---+--
----6---++--++-++-+
+--+--+-----++---++
+-+5+-+-+--+++-+-++
+-+++++-+--+---+--+

*** Life<FredkinCell> 3x3 ***

Generation = 0, Population = 8.
000
00-
000

Generation = 15, Population = 0.
---
---
---

*** Life<FredkinCell> 10x9 ***

Generation = 0, Population = 28.
--0-0----
000--0---
---0--00-
-0--0--0-
--000--0-
0---0----
----000--
0-------0
-0--0---0
0----0---

Generation = 10, Population = 44.
-030-120-
3431--4-1
-011-----
-4-3----1
2-4--3---
03-1----3
-234-0-0-
----47546
--73---24
11-1-3-3-

*** Life<FredkinCell> 7x4 ***

Generation = 0, Population = 17.
0000
0--0
0--0
--00
0---
000-
0-00

Generation = 23, Population = 14.
20--
---5
-4+3
-4-3
+5--
--72
-6-5

Generation = 46, Population = 15.
----
4+--
+7+6
--+-
+9++
-4+3
---+

Generation = 69, Population = 12.
---3
--6-
+---
+--+
++--
+---
9+9+

Generation = 92, Population = 14.
--+-
-+--
+-+-
++-+
++++
+---
--++

*** Life<FredkinCell> 16x10 ***

Generation = 0, Population = 45.
-0-0-0----
0---0--0--
00-----0--
----0--000
0--0-0----
---------0
0-0-----00
0---------
-------0--
0-0--00-0-
0---0--0-0
----------
-00----000
----00----
---0--000-
0--0------

Generation = 30, Population = 81.
7+--5--3--
---6----+6
58-67-1---
---8-8----
9----9+--+
-597-67-+-
---6--6-3-
---64-4--7
9-+3594346
+-7++676--
--+56-968-
-9-+-+68+-
--8--+-+-7
-5-6236--+
6---487-8-
+-+7-986-+

*** Life<FredkinCell> 9x6 ***

Generation = 0, Population = 40.
-00000
-0--0-
-00000
-00000
-0000-
-0-0-0
000000
-00-00
000000

Generation = 30, Population = 33.
-762-7
-262+8
5-+--6
-359--
6+-+-7
6-3-6-
9---78
-467-5
-993-5

*** Life<FredkinCell> 3x2 ***

Generation = 0, Population = 4.
-0
00
0-

Generation = 31, Population = 2.
8-
--
-8

*** Life<FredkinCell> 17x10 ***

Generation = 0, Population = 49.
-0---0-0--
--0-0-0---
-0---00---
---00----0
0-----0--0
-0-0---0--
----0----0
----0---0-
0-00-00---
0----0-0-0
----00---0
0------0-0
--0-------
--0--0-0--
00----0---
00-0------
------0--0

Generation = 48, Population = 94.
++7--+8-+8
5+++---+--
-+--8+-+--
-+7-++++-+
+--+6-9--+
5---+--+--
--+++-++6-
-+-++-+--6
----+-++-+
++-++----+
-+-++9--++
+++-+++7+-
+-+-++---+
-8--88----
++--++-+++
-9++-+-96-
+++8+-+++-

*** Life<FredkinCell> 16x9 ***

Generation = 0, Population = 14.
---------
0--------
---------
---------
------0--
--------0
--0------
--0------
--0------
---0-----
-0-----0-
-----0-0-
-0-------
--------0
---------
--------0

*** Life<FredkinCell> 18x2 ***

Generation = 0, Population = 21.
00
-0
--
-0
-0
0-
0-
00
-0
00
0-
0-
--
--
00
00
-0
00

Generation = 25, Population = 15.
5-
+-
--
--
-8
-0
--
--
-7
-+
7+
6-
3-
5-
6-
5-
-7
-4

Generation = 50, Population = 26.
++
+9
+-
-+
-+
+9
++
--
-+
++
--
+-
++
9+
++
++
+-
++

Generation = 75, Population = 19.
++
--
-+
-+
-+
+-
++
--
--
++
-+
-+
-+
-+
+-
++
+-
+-

*** Life<FredkinCell> 8x7 ***

Generation = 0, Population = 13.
----0-0
------0
-00-0--
-----0-
----00-
00-----
-------
00-----

*** Life<FredkinCell> 3x13 ***

Generation = 0, Population = 25.
-0--00---0-00
00000-000--0-
0-0000-000-00

Generation = 40, Population = 27.
-+4+--++-9-+-
-++++++-88+86
+-++-98-+-4++

Generation = 80, Population = 26.
+-+++++--++++
-++++--+-++-+
++-+-++++-8--

*** Life<FredkinCell> 16x19 ***

Generation = 0, Population = 30.
-------0------0----
----0--------------
-0---0--------0----
-------0------0----
-------------------
0----0-------------
--------------0----
0------------------
-----0-0-------0---
------0------------
0----0--------00---
---0----------0----
-------------------
-----------0-------
-------0---0-------
----0---0--0-00----

Generation = 44, Population = 144.
-58+8-----8--7--+-6
+---68+35--+8-+---6
+--987-+-+4+-------
-69-8-79---++-+----
-+--3-+--88939---95
-+--9--+-++7--+--+7
-9-4-+--+55-------6
+6+-++---99--685-5-
-4-+6-2-+--4-7+---6
8--6+7+9-67-+4+----
7--8-7-+-7++47--++-
14-4-+-+-45-+---949
--+--+--7-86-8--9--
6+-+---4-+8+--+-5--
+-8-6--+-81+8+-----
---+9-----4-+---5-+

*** Life<FredkinCell> 10x20 ***

Generation = 0, Population = 19.
-0------------0-----
--------0-----------
-------------------0
--------------------
----------0----0----
------0-------------
--00-----0------0---
--0-----0-------00--
-0----0-------------
0-0-----------------

*** Life<FredkinCell> 16x3 ***

Generation = 0, Population = 28.
000
---
000
000
-00
0--
-0-
00-
0-0
-00
00-
0--
0-0
--0
-0-
0-0

*** Life<FredkinCell> 17x7 ***

Generation = 0, Population = 51.
--00-0-
0--00-0
-00-0--
-0-0-00
0--0--0
---0-0-
----0--
-0-0000
-0---00
-0--0--
-0-----
-00000-
00-----
00-----
0--0--0
0--0000
0--0--0

Generation = 44, Population = 61.
-++-++-
+-4-9+-
--++++6
--+--9-
5-++98+
9---+--
+----++
6++--9-
-+7----
+--+9-7
++1+++-
-9+--+-
++--5-8
----++-
+---8++
---+--+
+-6+--+

*** Life<FredkinCell> 8x6 ***

Generation = 0, Population = 29.
0--000
000---
-00---
000-0-
00-00-
000-00
00-000
---0-0

Generation = 26, Population = 28.
8+78+-
6-6--6
--8+4-
26-74+
-+48-6
+---40
--3-+-
+-5--4

Generation = 52, Population = 21.
++-+--
---4-+
+8-+87
6+++-+
--8-+-
+-+---
------
-8-+--

Generation = 78, Population = 26.
-++--+
++--++
--+++-
+--+--
-+-+-+
++-++0
-+-0--
++++--

*** Life<FredkinCell> 3x3 ***

Generation = 0, Population = 6.
-0-
000
00-

Generation = 8, Population = 0.
---
---
---

Generation = 16, Population = 0.
---
---
---

Generation = 24, Population = 0.
---
---
---

Generation = 32, Population = 0.
---
---
---

Generation = 40, Population = 0.
---
---
---

Generation = 48, Population = 0.
---
---
---

Generation = 56, Population = 0.
---
---
---

Generation = 64, Population = 0.
---
---
---

*** Life<FredkinCell> 3x17 ***

Generation = 0, Population = 23.
0---------00---0-
0000-0----00-000-
00-00-0-0---0-00-

*** Life<FredkinCell> 19x11 ***

Generation = 0, Population = 7.
-----------
-----------
-----------
-----0----0
-----------
-----------
--------0--
-----------
-----------
-----------
-----------
-----------
---0-------
-----------
-------0---
-----------
-----------
----0----0-
-----------

Generation = 30, Population = 75.
--------3--
-4----2-68-
------7---1
---35-723-7
----4---5-0
-2---64-546
--43--4-2-7
---5---13-9
-0--73-15-6
-----8----7
---2-275-22
----0----4-
---3-6-232-
--6---66---
-0-2-3-5---
0----5--26-
-3-2-7-6---
6--2---2--5
---3-4-+-2-

*** Life<FredkinCell> 16x3 ***

Generation = 0, Population = 29.
-00
--0
000
-0-
-00
0-0
000
--0
0-0
-00
-00
00-
---
0-0
000
-0-

Generation = 19, Population = 22.
-53
-46
78-
7-8
+--
-2-
-2-
6--
4--
--6
---
-66
6--
-3+
65-
6--

Generation = 38, Population = 23.
-9-
-6+
---
--+
+8+
9--
+--
-5-
++-
-+9
6-8
-+-
89-
-4+
8--
-9-

Generation = 57, Population = 24.
-+7
++-
+--
-9+
-+-
---
+-9
--+
-+7
-+-
+-+
-++
---
--+
++7
+-+

Generation = 76, Population = 29.
+++
+++
+++
-++
-++
+-+
++-
-+-
-+-
+--
+--
+++
+--
-8+
+--
--+

*** Life<FredkinCell> 13x11 ***

Generation = 0, Population = 39.
--00-------
---0-0----0
-0---0--0--
0----------
-----0-00-0
-00--0-----
0---00----0
--0-0-----0
-0--------0
0--0---00--
0-0----00--
---00------
---0--000--

Generation = 24, Population = 62.
-77-8--36--
5-54---79+-
+-----83--8
5-46------8
47-45-9-6-5
-8979----5-
-2------2+-
5-35--6-6-5
8-67-42-5--
7-5-78-63--
----6-24+--
9-5-4-----9
-----4----+

Generation = 48, Population = 60.
++-+---9-+-
+-++9--++-9
-8-+9+--7--
9--+6-+-7--
-98--++-9+-
+--++--+988
+-+--+---+-
+----------
-------+-+-
---+++---+-
---+--8-+-8
--9-7-9-+-+
+--+-+-+-9-

*** Life<FredkinCell> 1x9 ***

Generation = 0, Population = 6.
0--0000-0

*** Life<FredkinCell> 11x19 ***

Generation = 0, Population = 72.
---0----0-----0--00
----0-----00--0----
000------00--------
---00---0---0-0----
--0-----00--0---000
---0---0---0-----00
--00--00---000--0-0
-0000--0----0-000--
-00---0--00000-----
0-0---0-00-000--000
-----0----00--0----

Generation = 46, Population = 108.
---+7++-7++-+--++--
+3---+8--+7+-+6-+8-
+--++2--+--++--6-+5
--+---3-+4++-6+---+
-++-+6++7---9+6---7
-+-4+5-++--++--++++
-+-+++-++8--+++-++8
+8-2-----68--+-+---
+9-2--+---8+-6---++
5+-5---9---++++5--+
--+-++-7--------8-6

*** Life<FredkinCell> 5x14 ***

Generation = 0, Population = 26.
0------00-0--0
---------00--0
0-0----00--0-0
00000-0---000-
-0------0-0---
